{"Iteration": 0, "Steps": 1019999, "Epsilon": 0.050000000000000044, "Episodes": 7, "AverageReturn": -16.428571428571427, "AverageDiscountedReturn": -0.5658600930454115, "TDError^2": 0.00696731498464942}
{"Iteration": 1, "Steps": 1029999, "Epsilon": 0.050000000000000044, "Episodes": 12, "AverageReturn": -16.9, "AverageDiscountedReturn": -0.5075264070700642, "TDError^2": 0.004776079207658768}
{"Iteration": 2, "Steps": 1039999, "Epsilon": 0.050000000000000044, "Episodes": 16, "AverageReturn": -17.3, "AverageDiscountedReturn": -0.4533562268164301, "TDError^2": 0.004883050452917814}
{"Iteration": 3, "Steps": 1049999, "Epsilon": 0.050000000000000044, "Episodes": 20, "AverageReturn": -17.0, "AverageDiscountedReturn": -0.49418186434899924, "TDError^2": 0.005426720250397921}
{"Iteration": 4, "Steps": 1059999, "Epsilon": 0.050000000000000044, "Episodes": 24, "AverageReturn": -16.7, "AverageDiscountedReturn": -0.49131474707406086, "TDError^2": 0.006414255127310753}
{"Iteration": 5, "Steps": 1069999, "Epsilon": 0.050000000000000044, "Episodes": 29, "AverageReturn": -17.1, "AverageDiscountedReturn": -0.5121620049313276, "TDError^2": 0.0073465947061777115}
{"Iteration": 6, "Steps": 1079999, "Epsilon": 0.050000000000000044, "Episodes": 33, "AverageReturn": -17.5, "AverageDiscountedReturn": -0.5265446189502947, "TDError^2": 0.005653110798448324}
{"Iteration": 7, "Steps": 1089999, "Epsilon": 0.050000000000000044, "Episodes": 36, "AverageReturn": -16.1, "AverageDiscountedReturn": -0.4066652434908299, "TDError^2": 0.005726289935410023}
{"Iteration": 8, "Steps": 1099999, "Epsilon": 0.050000000000000044, "Episodes": 40, "AverageReturn": -15.6, "AverageDiscountedReturn": -0.34173752961615117, "TDError^2": 0.006249323952943087}
{"Iteration": 9, "Steps": 1109999, "Epsilon": 0.050000000000000044, "Episodes": 44, "AverageReturn": -14.8, "AverageDiscountedReturn": -0.4362762845803226, "TDError^2": 0.007654024288058281}
{"Iteration": 10, "Steps": 1119999, "Epsilon": 0.050000000000000044, "Episodes": 48, "AverageReturn": -15.0, "AverageDiscountedReturn": -0.49143979157883033, "TDError^2": 0.00799251813441515}
{"Iteration": 11, "Steps": 1129999, "Epsilon": 0.050000000000000044, "Episodes": 51, "AverageReturn": -15.2, "AverageDiscountedReturn": -0.41428877188900615, "TDError^2": 0.006273495499044657}
{"Iteration": 12, "Steps": 1139999, "Epsilon": 0.050000000000000044, "Episodes": 54, "AverageReturn": -15.3, "AverageDiscountedReturn": -0.32902659777969046, "TDError^2": 0.006137629970908165}
{"Iteration": 13, "Steps": 1149999, "Epsilon": 0.050000000000000044, "Episodes": 58, "AverageReturn": -15.2, "AverageDiscountedReturn": -0.18969494290914135, "TDError^2": 0.007655623368918896}
{"Iteration": 14, "Steps": 1159999, "Epsilon": 0.050000000000000044, "Episodes": 61, "AverageReturn": -14.6, "AverageDiscountedReturn": -0.2834488906995799, "TDError^2": 0.007112501189112663}
{"Iteration": 15, "Steps": 1169999, "Epsilon": 0.050000000000000044, "Episodes": 65, "AverageReturn": -15.9, "AverageDiscountedReturn": -0.4712766412089522, "TDError^2": 0.006719864439219236}
{"Iteration": 16, "Steps": 1179999, "Epsilon": 0.050000000000000044, "Episodes": 69, "AverageReturn": -15.9, "AverageDiscountedReturn": -0.5640210412703265, "TDError^2": 0.004779148381203413}
{"Iteration": 0, "Steps": 1019999, "Epsilon": 0.050000000000000044, "Episodes": 8, "AverageReturn": -17.0, "AverageDiscountedReturn": -0.5265915622855459, "TDError^2": 0.009405751712620258}
{"Iteration": 1, "Steps": 1029999, "Epsilon": 0.050000000000000044, "Episodes": 13, "AverageReturn": -17.4, "AverageDiscountedReturn": -0.8003282962307974, "TDError^2": 0.006704626139253378}
{"Iteration": 2, "Steps": 1039999, "Epsilon": 0.050000000000000044, "Episodes": 17, "AverageReturn": -18.1, "AverageDiscountedReturn": -0.6766022289890959, "TDError^2": 0.004904784727841616}
{"Iteration": 3, "Steps": 1049999, "Epsilon": 0.050000000000000044, "Episodes": 21, "AverageReturn": -16.6, "AverageDiscountedReturn": -0.5891451897696816, "TDError^2": 0.00601902324706316}
{"Iteration": 4, "Steps": 1059999, "Epsilon": 0.050000000000000044, "Episodes": 25, "AverageReturn": -16.6, "AverageDiscountedReturn": -0.5544718852234146, "TDError^2": 0.00632899533957243}
{"Iteration": 5, "Steps": 1069999, "Epsilon": 0.050000000000000044, "Episodes": 29, "AverageReturn": -16.6, "AverageDiscountedReturn": -0.5374300683446982, "TDError^2": 0.005971591453999281}
{"Iteration": 6, "Steps": 1079999, "Epsilon": 0.050000000000000044, "Episodes": 33, "AverageReturn": -16.4, "AverageDiscountedReturn": -0.341004715701425, "TDError^2": 0.005559626035392284}
{"Iteration": 7, "Steps": 1089999, "Epsilon": 0.050000000000000044, "Episodes": 38, "AverageReturn": -16.7, "AverageDiscountedReturn": -0.4069024134279534, "TDError^2": 0.00503796711564064}
{"Iteration": 8, "Steps": 1099999, "Epsilon": 0.050000000000000044, "Episodes": 42, "AverageReturn": -17.2, "AverageDiscountedReturn": -0.42208766257184277, "TDError^2": 0.006869692821055651}
{"Iteration": 9, "Steps": 1109999, "Epsilon": 0.050000000000000044, "Episodes": 46, "AverageReturn": -16.8, "AverageDiscountedReturn": -0.3597753383979426, "TDError^2": 0.006304274778813124}
{"Iteration": 10, "Steps": 1119999, "Epsilon": 0.050000000000000044, "Episodes": 49, "AverageReturn": -15.8, "AverageDiscountedReturn": -0.49472219036930654, "TDError^2": 0.0048087830655276775}
{"Iteration": 11, "Steps": 1129999, "Epsilon": 0.050000000000000044, "Episodes": 53, "AverageReturn": -15.5, "AverageDiscountedReturn": -0.6188184121483002, "TDError^2": 0.005765972658991814}
{"Iteration": 12, "Steps": 1139999, "Epsilon": 0.050000000000000044, "Episodes": 57, "AverageReturn": -15.2, "AverageDiscountedReturn": -0.4990398540332639, "TDError^2": 0.006382656749337912}
{"Iteration": 13, "Steps": 1149999, "Epsilon": 0.050000000000000044, "Episodes": 60, "AverageReturn": -15.1, "AverageDiscountedReturn": -0.537119191718629, "TDError^2": 0.005900336429476738}
{"Iteration": 14, "Steps": 1159999, "Epsilon": 0.050000000000000044, "Episodes": 64, "AverageReturn": -14.9, "AverageDiscountedReturn": -0.3824270624271965, "TDError^2": 0.004646921996027231}
{"Iteration": 15, "Steps": 1169999, "Epsilon": 0.050000000000000044, "Episodes": 68, "AverageReturn": -16.0, "AverageDiscountedReturn": -0.5792255369168038, "TDError^2": 0.004306448623538017}
{"Iteration": 16, "Steps": 1179999, "Epsilon": 0.050000000000000044, "Episodes": 72, "AverageReturn": -17.3, "AverageDiscountedReturn": -0.6278209981615388, "TDError^2": 0.004776475485414267}
{"Iteration": 17, "Steps": 1189999, "Epsilon": 0.050000000000000044, "Episodes": 75, "AverageReturn": -16.5, "AverageDiscountedReturn": -0.5526386746593126, "TDError^2": 0.0042718504555523396}
{"Iteration": 18, "Steps": 1199999, "Epsilon": 0.050000000000000044, "Episodes": 79, "AverageReturn": -15.6, "AverageDiscountedReturn": -0.47170489655013287, "TDError^2": 0.004192544613033533}
{"Iteration": 19, "Steps": 1209999, "Epsilon": 0.050000000000000044, "Episodes": 83, "AverageReturn": -16.2, "AverageDiscountedReturn": -0.5867249591166672, "TDError^2": 0.006877614185214043}
{"Iteration": 20, "Steps": 1219999, "Epsilon": 0.050000000000000044, "Episodes": 87, "AverageReturn": -16.2, "AverageDiscountedReturn": -0.6657018997436196, "TDError^2": 0.004048209637403488}
{"Iteration": 21, "Steps": 1229999, "Epsilon": 0.050000000000000044, "Episodes": 90, "AverageReturn": -15.6, "AverageDiscountedReturn": -0.4955226711091433, "TDError^2": 0.005025413818657398}
{"Iteration": 22, "Steps": 1239999, "Epsilon": 0.050000000000000044, "Episodes": 94, "AverageReturn": -14.3, "AverageDiscountedReturn": -0.4675854788021579, "TDError^2": 0.005754133686423302}
{"Iteration": 23, "Steps": 1249999, "Epsilon": 0.050000000000000044, "Episodes": 98, "AverageReturn": -15.1, "AverageDiscountedReturn": -0.3748115171943358, "TDError^2": 0.007160477805882692}
{"Iteration": 24, "Steps": 1259999, "Epsilon": 0.050000000000000044, "Episodes": 101, "AverageReturn": -14.8, "AverageDiscountedReturn": -0.43597067134757206, "TDError^2": 0.005322813987731934}
{"Iteration": 25, "Steps": 1269999, "Epsilon": 0.050000000000000044, "Episodes": 104, "AverageReturn": -13.7, "AverageDiscountedReturn": -0.32039752340552113, "TDError^2": 0.00578331807628274}
{"Iteration": 26, "Steps": 1279999, "Epsilon": 0.050000000000000044, "Episodes": 108, "AverageReturn": -13.5, "AverageDiscountedReturn": -0.32650641927495094, "TDError^2": 0.006332298740744591}
{"Iteration": 27, "Steps": 1289999, "Epsilon": 0.050000000000000044, "Episodes": 111, "AverageReturn": -13.7, "AverageDiscountedReturn": -0.25884506062668, "TDError^2": 0.00432503642514348}
{"Iteration": 28, "Steps": 1299999, "Epsilon": 0.050000000000000044, "Episodes": 114, "AverageReturn": -14.6, "AverageDiscountedReturn": -0.3494047628679625, "TDError^2": 0.005519101396203041}
{"Iteration": 29, "Steps": 1309999, "Epsilon": 0.050000000000000044, "Episodes": 116, "AverageReturn": -14.6, "AverageDiscountedReturn": -0.3758487787813162, "TDError^2": 0.0057083191350102425}
{"Iteration": 30, "Steps": 1319999, "Epsilon": 0.050000000000000044, "Episodes": 120, "AverageReturn": -12.4, "AverageDiscountedReturn": -0.3027511282995249, "TDError^2": 0.007445373572409153}
{"Iteration": 31, "Steps": 1329999, "Epsilon": 0.050000000000000044, "Episodes": 123, "AverageReturn": -13.2, "AverageDiscountedReturn": -0.3821904163406454, "TDError^2": 0.005155463702976704}
{"Iteration": 32, "Steps": 1339999, "Epsilon": 0.050000000000000044, "Episodes": 126, "AverageReturn": -12.6, "AverageDiscountedReturn": -0.2715097884155985, "TDError^2": 0.008202394470572472}
{"Iteration": 33, "Steps": 1349999, "Epsilon": 0.050000000000000044, "Episodes": 130, "AverageReturn": -14.8, "AverageDiscountedReturn": -0.24919447972866768, "TDError^2": 0.005059507675468922}
{"Iteration": 34, "Steps": 1359999, "Epsilon": 0.050000000000000044, "Episodes": 134, "AverageReturn": -15.6, "AverageDiscountedReturn": -0.37563137402468383, "TDError^2": 0.005449507385492325}
{"Iteration": 35, "Steps": 1369999, "Epsilon": 0.050000000000000044, "Episodes": 137, "AverageReturn": -16.5, "AverageDiscountedReturn": -0.40874222873726407, "TDError^2": 0.006046605296432972}
{"Iteration": 36, "Steps": 1379999, "Epsilon": 0.050000000000000044, "Episodes": 141, "AverageReturn": -16.5, "AverageDiscountedReturn": -0.4307943405119333, "TDError^2": 0.005250636488199234}
{"Iteration": 37, "Steps": 1389999, "Epsilon": 0.050000000000000044, "Episodes": 144, "AverageReturn": -15.6, "AverageDiscountedReturn": -0.40000778266458814, "TDError^2": 0.004541939590126276}
{"Iteration": 38, "Steps": 1399999, "Epsilon": 0.050000000000000044, "Episodes": 148, "AverageReturn": -14.6, "AverageDiscountedReturn": -0.4304478356598952, "TDError^2": 0.006140568293631077}
{"Iteration": 39, "Steps": 1409999, "Epsilon": 0.050000000000000044, "Episodes": 150, "AverageReturn": -13.8, "AverageDiscountedReturn": -0.2805755000789186, "TDError^2": 0.004703009035438299}
{"Iteration": 40, "Steps": 1419999, "Epsilon": 0.050000000000000044, "Episodes": 154, "AverageReturn": -14.0, "AverageDiscountedReturn": -0.22108621117480812, "TDError^2": 0.005368879064917564}
{"Iteration": 41, "Steps": 1429999, "Epsilon": 0.050000000000000044, "Episodes": 157, "AverageReturn": -14.6, "AverageDiscountedReturn": -0.223699725639312, "TDError^2": 0.004751119296997786}
{"Iteration": 42, "Steps": 1439999, "Epsilon": 0.050000000000000044, "Episodes": 161, "AverageReturn": -15.6, "AverageDiscountedReturn": -0.2850338815105623, "TDError^2": 0.00598261971026659}
{"Iteration": 43, "Steps": 1449999, "Epsilon": 0.050000000000000044, "Episodes": 164, "AverageReturn": -15.4, "AverageDiscountedReturn": -0.4848038070400899, "TDError^2": 0.005603667348623276}
{"Iteration": 44, "Steps": 1459999, "Epsilon": 0.050000000000000044, "Episodes": 167, "AverageReturn": -15.1, "AverageDiscountedReturn": -0.6155975507921612, "TDError^2": 0.0053665172308683395}
{"Iteration": 45, "Steps": 1469999, "Epsilon": 0.050000000000000044, "Episodes": 170, "AverageReturn": -13.8, "AverageDiscountedReturn": -0.5761235567784897, "TDError^2": 0.005009664688259363}
{"Iteration": 46, "Steps": 1479999, "Epsilon": 0.050000000000000044, "Episodes": 173, "AverageReturn": -13.1, "AverageDiscountedReturn": -0.37530280017061535, "TDError^2": 0.006883576512336731}
{"Iteration": 47, "Steps": 1489999, "Epsilon": 0.050000000000000044, "Episodes": 176, "AverageReturn": -13.0, "AverageDiscountedReturn": -0.41637951028038467, "TDError^2": 0.004466278478503227}
{"Iteration": 48, "Steps": 1499999, "Epsilon": 0.050000000000000044, "Episodes": 179, "AverageReturn": -12.5, "AverageDiscountedReturn": -0.40842935695055604, "TDError^2": 0.004091165494173765}
{"Iteration": 49, "Steps": 1509999, "Epsilon": 0.050000000000000044, "Episodes": 182, "AverageReturn": -13.3, "AverageDiscountedReturn": -0.23589123430149012, "TDError^2": 0.00736202159896493}
{"Iteration": 50, "Steps": 1519999, "Epsilon": 0.050000000000000044, "Episodes": 185, "AverageReturn": -13.3, "AverageDiscountedReturn": -0.21906142062292822, "TDError^2": 0.006073191296309233}
{"Iteration": 51, "Steps": 1529999, "Epsilon": 0.050000000000000044, "Episodes": 187, "AverageReturn": -12.5, "AverageDiscountedReturn": -0.10331225036861733, "TDError^2": 0.0059989881701767445}
{"Iteration": 52, "Steps": 1539999, "Epsilon": 0.050000000000000044, "Episodes": 190, "AverageReturn": -13.6, "AverageDiscountedReturn": -0.2312734044379864, "TDError^2": 0.005218090023845434}
{"Iteration": 53, "Steps": 1549999, "Epsilon": 0.050000000000000044, "Episodes": 194, "AverageReturn": -14.3, "AverageDiscountedReturn": -0.35872365616115715, "TDError^2": 0.005266429856419563}
{"Iteration": 54, "Steps": 1559999, "Epsilon": 0.050000000000000044, "Episodes": 197, "AverageReturn": -14.8, "AverageDiscountedReturn": -0.42651411360849245, "TDError^2": 0.005599571857601404}
{"Iteration": 55, "Steps": 1569999, "Epsilon": 0.050000000000000044, "Episodes": 199, "AverageReturn": -14.3, "AverageDiscountedReturn": -0.3492639173793065, "TDError^2": 0.005450595170259476}
{"Iteration": 56, "Steps": 1579999, "Epsilon": 0.050000000000000044, "Episodes": 203, "AverageReturn": -13.6, "AverageDiscountedReturn": -0.22539811739321003, "TDError^2": 0.004774590488523245}
{"Iteration": 57, "Steps": 1589999, "Epsilon": 0.050000000000000044, "Episodes": 205, "AverageReturn": -13.3, "AverageDiscountedReturn": -0.0037935533734769987, "TDError^2": 0.006347452290356159}
{"Iteration": 58, "Steps": 1599999, "Epsilon": 0.050000000000000044, "Episodes": 208, "AverageReturn": -13.9, "AverageDiscountedReturn": -0.0028308208632796704, "TDError^2": 0.004932446870952845}
{"Iteration": 59, "Steps": 1609999, "Epsilon": 0.050000000000000044, "Episodes": 211, "AverageReturn": -14.8, "AverageDiscountedReturn": -0.0709805321457477, "TDError^2": 0.002976067131385207}
{"Iteration": 60, "Steps": 1619999, "Epsilon": 0.050000000000000044, "Episodes": 214, "AverageReturn": -14.9, "AverageDiscountedReturn": -0.10180027477727834, "TDError^2": 0.0032668765634298325}
{"Iteration": 61, "Steps": 1629999, "Epsilon": 0.050000000000000044, "Episodes": 217, "AverageReturn": -15.1, "AverageDiscountedReturn": -0.2531314279225481, "TDError^2": 0.004360696766525507}
{"Iteration": 62, "Steps": 1639999, "Epsilon": 0.050000000000000044, "Episodes": 220, "AverageReturn": -15.3, "AverageDiscountedReturn": -0.2692838776228117, "TDError^2": 0.004859602078795433}
{"Iteration": 63, "Steps": 1649999, "Epsilon": 0.050000000000000044, "Episodes": 224, "AverageReturn": -16.1, "AverageDiscountedReturn": -0.4253926035569018, "TDError^2": 0.0053907837718725204}
{"Iteration": 64, "Steps": 1659999, "Epsilon": 0.050000000000000044, "Episodes": 227, "AverageReturn": -15.7, "AverageDiscountedReturn": -0.4690428556428151, "TDError^2": 0.006184886209666729}
{"Iteration": 65, "Steps": 1669999, "Epsilon": 0.050000000000000044, "Episodes": 230, "AverageReturn": -14.6, "AverageDiscountedReturn": -0.414373861154847, "TDError^2": 0.0047780489549040794}
{"Iteration": 66, "Steps": 1679999, "Epsilon": 0.050000000000000044, "Episodes": 232, "AverageReturn": -14.0, "AverageDiscountedReturn": -0.28743655574012644, "TDError^2": 0.0041770003736019135}
{"Iteration": 67, "Steps": 1689999, "Epsilon": 0.050000000000000044, "Episodes": 235, "AverageReturn": -13.1, "AverageDiscountedReturn": -0.1671686143085131, "TDError^2": 0.004436619114130735}
{"Iteration": 68, "Steps": 1699999, "Epsilon": 0.050000000000000044, "Episodes": 238, "AverageReturn": -12.7, "AverageDiscountedReturn": -0.23206900440279515, "TDError^2": 0.004429912660270929}
{"Iteration": 69, "Steps": 1709999, "Epsilon": 0.050000000000000044, "Episodes": 241, "AverageReturn": -12.9, "AverageDiscountedReturn": -0.30705818167906074, "TDError^2": 0.004806311801075935}
{"Iteration": 70, "Steps": 1719999, "Epsilon": 0.050000000000000044, "Episodes": 243, "AverageReturn": -12.0, "AverageDiscountedReturn": -0.3603627793798917, "TDError^2": 0.004909301642328501}
{"Iteration": 71, "Steps": 1729999, "Epsilon": 0.050000000000000044, "Episodes": 246, "AverageReturn": -11.5, "AverageDiscountedReturn": -0.31195599474821006, "TDError^2": 0.0036881195846945047}
{"Iteration": 72, "Steps": 1739999, "Epsilon": 0.050000000000000044, "Episodes": 249, "AverageReturn": -12.4, "AverageDiscountedReturn": -0.2871939349068221, "TDError^2": 0.005236889235675335}
{"Iteration": 73, "Steps": 1749999, "Epsilon": 0.050000000000000044, "Episodes": 251, "AverageReturn": -11.5, "AverageDiscountedReturn": -0.14612548367073214, "TDError^2": 0.003196474863216281}
{"Iteration": 74, "Steps": 1759999, "Epsilon": 0.050000000000000044, "Episodes": 254, "AverageReturn": -12.9, "AverageDiscountedReturn": -0.12217404286073293, "TDError^2": 0.0031147655099630356}
{"Iteration": 75, "Steps": 1769999, "Epsilon": 0.050000000000000044, "Episodes": 258, "AverageReturn": -13.8, "AverageDiscountedReturn": -0.31523466194432015, "TDError^2": 0.005764209199696779}
{"Iteration": 76, "Steps": 1779999, "Epsilon": 0.050000000000000044, "Episodes": 261, "AverageReturn": -14.8, "AverageDiscountedReturn": -0.2886610444380702, "TDError^2": 0.004148403182625771}
{"Iteration": 77, "Steps": 1789999, "Epsilon": 0.050000000000000044, "Episodes": 264, "AverageReturn": -15.1, "AverageDiscountedReturn": -0.3016011701999959, "TDError^2": 0.0060675740242004395}
{"Iteration": 78, "Steps": 1799999, "Epsilon": 0.050000000000000044, "Episodes": 267, "AverageReturn": -14.9, "AverageDiscountedReturn": -0.2663589725395223, "TDError^2": 0.0035601940471678972}
{"Iteration": 79, "Steps": 1809999, "Epsilon": 0.050000000000000044, "Episodes": 270, "AverageReturn": -13.6, "AverageDiscountedReturn": -0.3499747702488918, "TDError^2": 0.005505797918885946}
{"Iteration": 80, "Steps": 1819999, "Epsilon": 0.050000000000000044, "Episodes": 273, "AverageReturn": -13.7, "AverageDiscountedReturn": -0.3566568564242903, "TDError^2": 0.005106658209115267}
{"Iteration": 81, "Steps": 1829999, "Epsilon": 0.050000000000000044, "Episodes": 276, "AverageReturn": -12.7, "AverageDiscountedReturn": -0.3498581902721846, "TDError^2": 0.006775176152586937}
{"Iteration": 82, "Steps": 1839999, "Epsilon": 0.050000000000000044, "Episodes": 279, "AverageReturn": -12.5, "AverageDiscountedReturn": -0.35623041297767355, "TDError^2": 0.00578807108104229}
{"Iteration": 83, "Steps": 1849999, "Epsilon": 0.050000000000000044, "Episodes": 282, "AverageReturn": -12.5, "AverageDiscountedReturn": -0.2351712764461873, "TDError^2": 0.004112538415938616}
{"Iteration": 84, "Steps": 1859999, "Epsilon": 0.050000000000000044, "Episodes": 285, "AverageReturn": -13.6, "AverageDiscountedReturn": -0.30467445437507756, "TDError^2": 0.003228334477171302}
{"Iteration": 85, "Steps": 1869999, "Epsilon": 0.050000000000000044, "Episodes": 288, "AverageReturn": -14.1, "AverageDiscountedReturn": -0.3005100736176744, "TDError^2": 0.00482191052287817}
{"Iteration": 86, "Steps": 1879999, "Epsilon": 0.050000000000000044, "Episodes": 291, "AverageReturn": -13.5, "AverageDiscountedReturn": -0.4162898502700177, "TDError^2": 0.0049272519536316395}
{"Iteration": 87, "Steps": 1889999, "Epsilon": 0.050000000000000044, "Episodes": 294, "AverageReturn": -13.5, "AverageDiscountedReturn": -0.3626608324771756, "TDError^2": 0.005398752633482218}
{"Iteration": 88, "Steps": 1899999, "Epsilon": 0.050000000000000044, "Episodes": 297, "AverageReturn": -13.5, "AverageDiscountedReturn": -0.2717004188113024, "TDError^2": 0.0033755474723875523}
{"Iteration": 89, "Steps": 1909999, "Epsilon": 0.050000000000000044, "Episodes": 301, "AverageReturn": -14.6, "AverageDiscountedReturn": -0.2707372118096546, "TDError^2": 0.004990228917449713}
{"Iteration": 90, "Steps": 1919999, "Epsilon": 0.050000000000000044, "Episodes": 304, "AverageReturn": -14.2, "AverageDiscountedReturn": -0.3585357360575044, "TDError^2": 0.004894324578344822}
{"Iteration": 91, "Steps": 1929999, "Epsilon": 0.050000000000000044, "Episodes": 307, "AverageReturn": -14.2, "AverageDiscountedReturn": -0.39927213512500054, "TDError^2": 0.0034942314960062504}
{"Iteration": 92, "Steps": 1939999, "Epsilon": 0.050000000000000044, "Episodes": 309, "AverageReturn": -12.9, "AverageDiscountedReturn": -0.37572368880542695, "TDError^2": 0.006706811022013426}
{"Iteration": 93, "Steps": 1949999, "Epsilon": 0.050000000000000044, "Episodes": 313, "AverageReturn": -12.3, "AverageDiscountedReturn": -0.39101103596278686, "TDError^2": 0.005719831679016352}
{"Iteration": 94, "Steps": 1959999, "Epsilon": 0.050000000000000044, "Episodes": 316, "AverageReturn": -12.2, "AverageDiscountedReturn": -0.30645194732270065, "TDError^2": 0.0047116451896727085}
{"Iteration": 95, "Steps": 1969999, "Epsilon": 0.050000000000000044, "Episodes": 319, "AverageReturn": -12.7, "AverageDiscountedReturn": -0.30599968076334655, "TDError^2": 0.005185067653656006}
{"Iteration": 96, "Steps": 1979999, "Epsilon": 0.050000000000000044, "Episodes": 322, "AverageReturn": -13.5, "AverageDiscountedReturn": -0.43691573483877927, "TDError^2": 0.004550197161734104}
{"Iteration": 97, "Steps": 1989999, "Epsilon": 0.050000000000000044, "Episodes": 326, "AverageReturn": -14.6, "AverageDiscountedReturn": -0.4384372833549948, "TDError^2": 0.004219640977680683}
{"Iteration": 98, "Steps": 1999999, "Epsilon": 0.050000000000000044, "Episodes": 329, "AverageReturn": -16.0, "AverageDiscountedReturn": -0.45615145894237497, "TDError^2": 0.00601934501901269}
{"Iteration": 99, "Steps": 2009999, "Epsilon": 0.050000000000000044, "Episodes": 332, "AverageReturn": -16.8, "AverageDiscountedReturn": -0.46916819638590634, "TDError^2": 0.004343877546489239}
{"Iteration": 100, "Steps": 2019999, "Epsilon": 0.050000000000000044, "Episodes": 334, "AverageReturn": -15.1, "AverageDiscountedReturn": -0.4103857760186281, "TDError^2": 0.00383780337870121}
{"Iteration": 101, "Steps": 2029999, "Epsilon": 0.050000000000000044, "Episodes": 337, "AverageReturn": -13.5, "AverageDiscountedReturn": -0.49848792307083184, "TDError^2": 0.004466501530259848}
{"Iteration": 102, "Steps": 2039999, "Epsilon": 0.050000000000000044, "Episodes": 340, "AverageReturn": -13.1, "AverageDiscountedReturn": -0.5583620158634996, "TDError^2": 0.0033017368987202644}
{"Iteration": 103, "Steps": 2049999, "Epsilon": 0.050000000000000044, "Episodes": 343, "AverageReturn": -12.4, "AverageDiscountedReturn": -0.45273037271266114, "TDError^2": 0.0038000824861228466}
{"Iteration": 104, "Steps": 2059999, "Epsilon": 0.050000000000000044, "Episodes": 347, "AverageReturn": -13.8, "AverageDiscountedReturn": -0.4200480032605176, "TDError^2": 0.005869245622307062}
{"Iteration": 105, "Steps": 2069999, "Epsilon": 0.050000000000000044, "Episodes": 351, "AverageReturn": -15.5, "AverageDiscountedReturn": -0.48208897175343984, "TDError^2": 0.005080774892121553}
{"Iteration": 106, "Steps": 2079999, "Epsilon": 0.050000000000000044, "Episodes": 355, "AverageReturn": -15.5, "AverageDiscountedReturn": -0.5703286293140817, "TDError^2": 0.0050944071263074875}
{"Iteration": 107, "Steps": 2089999, "Epsilon": 0.050000000000000044, "Episodes": 358, "AverageReturn": -15.1, "AverageDiscountedReturn": -0.6291047382192513, "TDError^2": 0.006777378264814615}
{"Iteration": 108, "Steps": 2099999, "Epsilon": 0.050000000000000044, "Episodes": 361, "AverageReturn": -14.3, "AverageDiscountedReturn": -0.5123513918158895, "TDError^2": 0.006156248040497303}
{"Iteration": 109, "Steps": 2109999, "Epsilon": 0.050000000000000044, "Episodes": 364, "AverageReturn": -13.0, "AverageDiscountedReturn": -0.48223199842546205, "TDError^2": 0.003738485975190997}
{"Iteration": 110, "Steps": 2119999, "Epsilon": 0.050000000000000044, "Episodes": 366, "AverageReturn": -12.6, "AverageDiscountedReturn": -0.39545187135174625, "TDError^2": 0.004486778285354376}
{"Iteration": 111, "Steps": 2129999, "Epsilon": 0.050000000000000044, "Episodes": 369, "AverageReturn": -11.8, "AverageDiscountedReturn": -0.17558719238417977, "TDError^2": 0.004348598886281252}
{"Iteration": 112, "Steps": 2139999, "Epsilon": 0.050000000000000044, "Episodes": 372, "AverageReturn": -12.5, "AverageDiscountedReturn": -0.12506382080121725, "TDError^2": 0.005028786603361368}
{"Iteration": 113, "Steps": 2149999, "Epsilon": 0.050000000000000044, "Episodes": 375, "AverageReturn": -12.8, "AverageDiscountedReturn": -0.15940392977966483, "TDError^2": 0.00596579210832715}
{"Iteration": 114, "Steps": 2159999, "Epsilon": 0.050000000000000044, "Episodes": 378, "AverageReturn": -13.5, "AverageDiscountedReturn": -0.3073034113149632, "TDError^2": 0.005431808065623045}
{"Iteration": 115, "Steps": 2169999, "Epsilon": 0.050000000000000044, "Episodes": 381, "AverageReturn": -13.0, "AverageDiscountedReturn": -0.2554858778319885, "TDError^2": 0.005381756462156773}
{"Iteration": 116, "Steps": 2179999, "Epsilon": 0.050000000000000044, "Episodes": 383, "AverageReturn": -12.8, "AverageDiscountedReturn": -0.2511506343123283, "TDError^2": 0.004850433673709631}
{"Iteration": 117, "Steps": 2189999, "Epsilon": 0.050000000000000044, "Episodes": 386, "AverageReturn": -13.1, "AverageDiscountedReturn": -0.1559440070514257, "TDError^2": 0.005307983141392469}
{"Iteration": 118, "Steps": 2199999, "Epsilon": 0.050000000000000044, "Episodes": 389, "AverageReturn": -12.3, "AverageDiscountedReturn": -0.21905002256144743, "TDError^2": 0.004736713599413633}
{"Iteration": 119, "Steps": 2209999, "Epsilon": 0.050000000000000044, "Episodes": 392, "AverageReturn": -13.0, "AverageDiscountedReturn": -0.29441248654971874, "TDError^2": 0.005846583750098944}
{"Iteration": 120, "Steps": 2219999, "Epsilon": 0.050000000000000044, "Episodes": 395, "AverageReturn": -13.5, "AverageDiscountedReturn": -0.2739911457238164, "TDError^2": 0.006607085932046175}
{"Iteration": 121, "Steps": 2229999, "Epsilon": 0.050000000000000044, "Episodes": 398, "AverageReturn": -14.3, "AverageDiscountedReturn": -0.20472491618567296, "TDError^2": 0.004399753175675869}
{"Iteration": 122, "Steps": 2239999, "Epsilon": 0.050000000000000044, "Episodes": 400, "AverageReturn": -15.4, "AverageDiscountedReturn": -0.32759613699548656, "TDError^2": 0.004230460152029991}
{"Iteration": 123, "Steps": 2249999, "Epsilon": 0.050000000000000044, "Episodes": 403, "AverageReturn": -15.2, "AverageDiscountedReturn": -0.22807990287228602, "TDError^2": 0.003220698330551386}
{"Iteration": 124, "Steps": 2259999, "Epsilon": 0.050000000000000044, "Episodes": 406, "AverageReturn": -14.5, "AverageDiscountedReturn": -0.14964431893567273, "TDError^2": 0.003578908508643508}
{"Iteration": 125, "Steps": 2269999, "Epsilon": 0.050000000000000044, "Episodes": 409, "AverageReturn": -14.5, "AverageDiscountedReturn": -0.18242383608537355, "TDError^2": 0.004523820243775845}
{"Iteration": 126, "Steps": 2279999, "Epsilon": 0.050000000000000044, "Episodes": 413, "AverageReturn": -15.8, "AverageDiscountedReturn": -0.3848993741185474, "TDError^2": 0.004161237273365259}
{"Iteration": 127, "Steps": 2289999, "Epsilon": 0.050000000000000044, "Episodes": 416, "AverageReturn": -15.4, "AverageDiscountedReturn": -0.45496560226676247, "TDError^2": 0.005170651711523533}
{"Iteration": 128, "Steps": 2299999, "Epsilon": 0.050000000000000044, "Episodes": 419, "AverageReturn": -15.3, "AverageDiscountedReturn": -0.5271206572038644, "TDError^2": 0.00443311408162117}
{"Iteration": 129, "Steps": 2309999, "Epsilon": 0.050000000000000044, "Episodes": 422, "AverageReturn": -14.3, "AverageDiscountedReturn": -0.5016245289542368, "TDError^2": 0.007653506938368082}
{"Iteration": 130, "Steps": 2319999, "Epsilon": 0.050000000000000044, "Episodes": 425, "AverageReturn": -15.3, "AverageDiscountedReturn": -0.5785216525267536, "TDError^2": 0.0041954475454986095}
{"Iteration": 131, "Steps": 2329999, "Epsilon": 0.050000000000000044, "Episodes": 428, "AverageReturn": -14.5, "AverageDiscountedReturn": -0.5366133805212917, "TDError^2": 0.005265310872346163}
{"Iteration": 132, "Steps": 2339999, "Epsilon": 0.050000000000000044, "Episodes": 431, "AverageReturn": -12.7, "AverageDiscountedReturn": -0.4754684032809048, "TDError^2": 0.005705549847334623}
{"Iteration": 133, "Steps": 2349999, "Epsilon": 0.050000000000000044, "Episodes": 435, "AverageReturn": -13.7, "AverageDiscountedReturn": -0.4084689220888146, "TDError^2": 0.003977717831730843}
{"Iteration": 134, "Steps": 2359999, "Epsilon": 0.050000000000000044, "Episodes": 438, "AverageReturn": -14.2, "AverageDiscountedReturn": -0.3941455152798757, "TDError^2": 0.00405952287837863}
{"Iteration": 135, "Steps": 2369999, "Epsilon": 0.050000000000000044, "Episodes": 442, "AverageReturn": -15.7, "AverageDiscountedReturn": -0.42439544039588306, "TDError^2": 0.004006203263998032}
{"Iteration": 136, "Steps": 2379999, "Epsilon": 0.050000000000000044, "Episodes": 444, "AverageReturn": -14.4, "AverageDiscountedReturn": -0.5147183669334814, "TDError^2": 0.004118399228900671}
{"Iteration": 137, "Steps": 2389999, "Epsilon": 0.050000000000000044, "Episodes": 448, "AverageReturn": -14.9, "AverageDiscountedReturn": -0.4133266505616235, "TDError^2": 0.006378564052283764}
{"Iteration": 138, "Steps": 2399999, "Epsilon": 0.050000000000000044, "Episodes": 451, "AverageReturn": -14.4, "AverageDiscountedReturn": -0.3450999656928149, "TDError^2": 0.00470151100307703}
{"Iteration": 139, "Steps": 2409999, "Epsilon": 0.050000000000000044, "Episodes": 454, "AverageReturn": -15.1, "AverageDiscountedReturn": -0.20469072055440912, "TDError^2": 0.00401828670874238}
{"Iteration": 140, "Steps": 2419999, "Epsilon": 0.050000000000000044, "Episodes": 456, "AverageReturn": -14.5, "AverageDiscountedReturn": -0.15177254229077958, "TDError^2": 0.0034767920151352882}
{"Iteration": 141, "Steps": 2429999, "Epsilon": 0.050000000000000044, "Episodes": 460, "AverageReturn": -14.8, "AverageDiscountedReturn": -0.2553990155565117, "TDError^2": 0.004058129619807005}
{"Iteration": 142, "Steps": 2439999, "Epsilon": 0.050000000000000044, "Episodes": 463, "AverageReturn": -15.4, "AverageDiscountedReturn": -0.27914412101215014, "TDError^2": 0.0034414357505738735}
{"Iteration": 143, "Steps": 2449999, "Epsilon": 0.050000000000000044, "Episodes": 467, "AverageReturn": -16.3, "AverageDiscountedReturn": -0.24842189120448985, "TDError^2": 0.005102972500026226}
{"Iteration": 144, "Steps": 2459999, "Epsilon": 0.050000000000000044, "Episodes": 470, "AverageReturn": -15.2, "AverageDiscountedReturn": -0.18086709487604433, "TDError^2": 0.004619027487933636}
{"Iteration": 145, "Steps": 2469999, "Epsilon": 0.050000000000000044, "Episodes": 473, "AverageReturn": -14.3, "AverageDiscountedReturn": -0.319764039852776, "TDError^2": 0.005558065604418516}
{"Iteration": 146, "Steps": 2479999, "Epsilon": 0.050000000000000044, "Episodes": 478, "AverageReturn": -14.3, "AverageDiscountedReturn": -0.500594499639025, "TDError^2": 0.006098021287471056}
{"Iteration": 147, "Steps": 2489999, "Epsilon": 0.050000000000000044, "Episodes": 482, "AverageReturn": -15.3, "AverageDiscountedReturn": -0.509755867554157, "TDError^2": 0.006541392765939236}
{"Iteration": 148, "Steps": 2499999, "Epsilon": 0.050000000000000044, "Episodes": 485, "AverageReturn": -15.2, "AverageDiscountedReturn": -0.46549644356779873, "TDError^2": 0.005603032186627388}
{"Iteration": 149, "Steps": 2509999, "Epsilon": 0.050000000000000044, "Episodes": 488, "AverageReturn": -15.4, "AverageDiscountedReturn": -0.3587266340920062, "TDError^2": 0.0043069650419056416}
{"Iteration": 150, "Steps": 2519999, "Epsilon": 0.050000000000000044, "Episodes": 491, "AverageReturn": -14.6, "AverageDiscountedReturn": -0.40515814344297396, "TDError^2": 0.004558673594146967}
{"Iteration": 151, "Steps": 2529999, "Epsilon": 0.050000000000000044, "Episodes": 493, "AverageReturn": -14.2, "AverageDiscountedReturn": -0.2840305668337852, "TDError^2": 0.0039029784966260195}
{"Iteration": 152, "Steps": 2539999, "Epsilon": 0.050000000000000044, "Episodes": 496, "AverageReturn": -14.8, "AverageDiscountedReturn": -0.21499744371842566, "TDError^2": 0.004316629841923714}
{"Iteration": 153, "Steps": 2549999, "Epsilon": 0.050000000000000044, "Episodes": 499, "AverageReturn": -13.8, "AverageDiscountedReturn": -0.0980487902921853, "TDError^2": 0.0035680390428751707}
{"Iteration": 154, "Steps": 2559999, "Epsilon": 0.050000000000000044, "Episodes": 502, "AverageReturn": -14.0, "AverageDiscountedReturn": -0.19043901894863485, "TDError^2": 0.004476539324969053}
{"Iteration": 155, "Steps": 2569999, "Epsilon": 0.050000000000000044, "Episodes": 504, "AverageReturn": -13.2, "AverageDiscountedReturn": -0.1966194929950082, "TDError^2": 0.003943140152841806}
{"Iteration": 156, "Steps": 2579999, "Epsilon": 0.050000000000000044, "Episodes": 507, "AverageReturn": -13.1, "AverageDiscountedReturn": -0.20046022801597116, "TDError^2": 0.004622969776391983}
{"Iteration": 157, "Steps": 2589999, "Epsilon": 0.050000000000000044, "Episodes": 510, "AverageReturn": -14.0, "AverageDiscountedReturn": -0.18609841803468835, "TDError^2": 0.0037019646260887384}
{"Iteration": 158, "Steps": 2599999, "Epsilon": 0.050000000000000044, "Episodes": 514, "AverageReturn": -16.0, "AverageDiscountedReturn": -0.26499202688746837, "TDError^2": 0.005047815851867199}
{"Iteration": 159, "Steps": 2609999, "Epsilon": 0.050000000000000044, "Episodes": 516, "AverageReturn": -15.2, "AverageDiscountedReturn": -0.34945063190282877, "TDError^2": 0.004844910930842161}
{"Iteration": 160, "Steps": 2619999, "Epsilon": 0.050000000000000044, "Episodes": 519, "AverageReturn": -15.5, "AverageDiscountedReturn": -0.45227735939249414, "TDError^2": 0.0034059775061905384}
